<?xml version="1.0" encoding="utf-8"?>
<!-- Generator: Adobe Illustrator 19.0.1, SVG Export Plug-In . SVG Version: 6.00 Build 0)  -->
<svg version="1.1"
	 id="svg2" sodipodi:docname="plus.svg" inkscape:version="0.48.4 r9939" xmlns:dc="http://purl.org/dc/elements/1.1/" xmlns:cc="http://creativecommons.org/ns#" xmlns:rdf="http://www.w3.org/1999/02/22-rdf-syntax-ns#" xmlns:svg="http://www.w3.org/2000/svg" xmlns:sodipodi="http://sodipodi.sourceforge.net/DTD/sodipodi-0.dtd" xmlns:inkscape="http://www.inkscape.org/namespaces/inkscape"
	 xmlns="http://www.w3.org/2000/svg" xmlns:xlink="http://www.w3.org/1999/xlink" x="0px" y="0px" viewBox="100 151 1200 1200"
	 style="enable-background:new 100 151 1200 1200;" xml:space="preserve">
<path id="path17223" inkscape:connector-curvature="0" d="M1004.1,206.6L700,510.7L395.9,206.6L155.6,446.9L459.7,751l-304.1,304.1
	l240.3,240.3L700,991.3l304.1,304.1l240.3-240.3L940.3,751l304.1-304.1L1004.1,206.6z"/>
</svg>
