<?xml version="1.0" encoding="utf-8"?>
<!-- Generator: Adobe Illustrator 22.0.1, SVG Export Plug-In . SVG Version: 6.00 Build 0)  -->
<svg version="1.1" id="Слой_1" xmlns="http://www.w3.org/2000/svg" xmlns:xlink="http://www.w3.org/1999/xlink" x="0px" y="0px"
	 viewBox="0 0 64 64" style="enable-background:new 0 0 64 64;" xml:space="preserve">
<path d="M18,48V0h-8v48H0l14,14l14-14H18z"/>
<path d="M34,0h30v8H34V0z"/>
<path d="M34,18h23.3v8H34V18z"/>
<path d="M34,36h16.7v8H34V36z"/>
<path d="M34,54h10v8H34V54z"/>
</svg>
